project,queue,x,command
test,batch1,x,./testload.exe
test,batch1,x,./testload.exe
test,batch1,x,./testload.exe
test,batch1,x,./testload.exe
test,batch1,x,./testload.exe
test,batch1,x,./testload.exe
test,batch1,x,./testload.exe
test,batch2,x,./testload.exe
test,batch2,x,./testload.exe
test,batch2,x,./testload.exe
test,batch3,x,./testload.exe
test,batch3,x,./testload.exe
test,batch3,x,./testload.exe
